{
  "project_info": {
    "project_number": "159247738172",
    "firebase_url": "https://noticiasupt-6c818.firebaseio.com",
    "project_id": "noticiasupt-6c818",
    "storage_bucket": "noticiasupt-6c818.appspot.com"
  },
  "client": [
    {
      "client_info": {
        "mobilesdk_app_id": "1:159247738172:android:63b77938d5512491ebea39",
        "android_client_info": {
          "package_name": "com.example.appeco_vid"
        }
      },
      "oauth_client": [
        {
          "client_id": "159247738172-at83k0fosjjc7obl7h725id3gbvcc7uh.apps.googleusercontent.com",
          "client_type": 1,
          "android_info": {
            "package_name": "com.example.appeco_vid",
            "certificate_hash": "59f49b89f74686e35a20bd24b475845dad185bdb"
          }
        },
        {
          "client_id": "159247738172-bui4j3icdse86d46pk7okd2hjd1mpdv4.apps.googleusercontent.com",
          "client_type": 3
        }
      ],
      "api_key": [
        {
          "current_key": "AIzaSyB68HEfYC3kr-to7wFLxNl_MSbMOaf__uU"
        }
      ],
      "services": {
        "appinvite_service": {
          "other_platform_oauth_client": [
            {
              "client_id": "159247738172-bui4j3icdse86d46pk7okd2hjd1mpdv4.apps.googleusercontent.com",
              "client_type": 3
            }
          ]
        }
      }
    }
  ],
  "configuration_version": "1"
}